[
    {
        "matches": [],
        "fighterMadeBy": [
            "111111111111111111111111111111"
        ],
        "_id": "5fc7e733aa47921750c739f6",
        "name": "Roger Gracie",
        "fightstyle": "Pressure",
        "sex": "Male",
        "__v": 0
    },
    {
        "matches": [],
        "fighterMadeBy": [
            "111111111111111111111111111111"
        ],
        "_id": "5fc7e749aa47921750c739f7",
        "name": "Buchecha Almeida",
        "fightstyle": "Pressure",
        "sex": "Male",
        "__v": 0
    }
]